NA
 32,29,19,13
NACIONAL
 26
NAQUELE
 5
NAS
 5
NAVEGADOR
 3
NESSE
 17,31,28,25,22,19,13,3
NO
 16,3,10,5,17,13,7
NOME
 41,38,35,7,14,10,43,37,32,31,26,13,11,44,28,25,8
NOVO
 10,7,13,31,28,25,22,19,32,26,23,20,14
NÃO
 45,42,36,33,3
