UM
 32,31,28,26,25,23,22,20,19,14,13,10,7
UMA
 13,10,7,5
USADOS
 19
USUÁRIO
 19,3,22,10,23,20,11,18,5,25,16
USUÁRIO(CADASTRO
 23,20
USUÁRIO(VISÃO
 22,19
USUÁRIO/TELE
 19
USUÁRIOS
 13,10,21,12,9,14,11,22,16,15
USUÁRIOS(CADASTRO
 14,11
USUÁRIOS(VISÃO
 13,10
UTILIZADOR
 1
